simulation/qsim/project2.msim.vcd
$comment
	File created using the following command:
		vcd file project2.msim.vcd -direction
$end
$date
	Thu Apr 28 00:15:58 2016
$end
$version
	ModelSim Version 10.4b
$end
$timescale
	1ps
$end

$scope module final_test_vlg_vec_tst $end
$var reg 32 ! A [31:0] $end
$var reg 32 " B [31:0] $end
$var reg 1 # CLOCK $end
$var reg 1 $ RST_FSM $end
$var wire 1 % C_LOW $end
$var wire 1 & CLR_OUT $end
$var wire 1 ' Cout $end
$var wire 1 ( fsm_input $end
$var wire 1 ) Q0 $end
$var wire 1 * Q1 $end
$var wire 1 + Q2 $end
$var wire 1 , Q3 $end
$var wire 1 - Q4 $end
$var wire 1 . Q5 $end
$var wire 1 / Q6 $end
$var wire 1 0 Q7 $end
$var wire 1 1 Q8 $end
$var wire 1 2 Q9 $end
$var wire 1 3 Q10 $end
$var wire 1 4 Q11 $end
$var wire 1 5 Q12 $end
$var wire 1 6 Q13 $end
$var wire 1 7 Q14 $end
$var wire 1 8 Q15 $end
$var wire 1 9 Q16 $end
$var wire 1 : Q17 $end
$var wire 1 ; Q18 $end
$var wire 1 < Q19 $end
$var wire 1 = Q20 $end
$var wire 1 > Q21 $end
$var wire 1 ? Q22 $end
$var wire 1 @ Q23 $end
$var wire 1 A Q24 $end
$var wire 1 B Q25 $end
$var wire 1 C Q26 $end
$var wire 1 D Q27 $end
$var wire 1 E Q28 $end
$var wire 1 F Q29 $end
$var wire 1 G Q30 $end
$var wire 1 H Q31 $end
$var wire 1 I reg_clock $end
$var wire 1 J test_clr $end
$var wire 1 K test_fsm $end

$scope module i1 $end
$var wire 1 L gnd $end
$var wire 1 M vcc $end
$var wire 1 N unknown $end
$var tri1 1 O devclrn $end
$var tri1 1 P devpor $end
$var tri1 1 Q devoe $end
$var wire 1 R CLOCK~combout $end
$var wire 1 S RST_FSM~combout $end
$var wire 1 T inst9|inst20|inst9~0_combout $end
$var wire 1 U inst9|inst21|inst9~0_combout $end
$var wire 1 V inst9|inst22|inst9~0_combout $end
$var wire 1 W inst9|inst23|inst9~0_combout $end
$var wire 1 X inst9|inst25|inst9~0_combout $end
$var wire 1 Y inst9|inst26|inst9~0_combout $end
$var wire 1 Z inst9|inst28|inst9~0_combout $end
$var wire 1 [ inst9|inst29|inst9~0_combout $end
$var wire 1 \ inst9|inst30|inst9~0_combout $end
$var wire 1 ] inst9|inst31|inst9~0_combout $end
$var wire 1 ^ inst9|inst32|inst9~0_combout $end
$var wire 1 _ inst9|inst33|inst9~0_combout $end
$var wire 1 ` inst9|inst34|inst9~0_combout $end
$var wire 1 a inst9|inst35|inst9~0_combout $end
$var wire 1 b inst9|inst36|inst9~0_combout $end
$var wire 1 c inst|fstate.C~regout $end
$var wire 1 d inst20|inst~2_combout $end
$var wire 1 e inst14|inst~regout $end
$var wire 1 f inst14|inst2~regout $end
$var wire 1 g inst14|inst3~regout $end
$var wire 1 h inst14|inst4~regout $end
$var wire 1 i inst14|inst5~regout $end
$var wire 1 j inst14|inst6~regout $end
$var wire 1 k inst14|inst7~regout $end
$var wire 1 l inst14|inst8~regout $end
$var wire 1 m inst14|inst9~regout $end
$var wire 1 n inst14|inst10~regout $end
$var wire 1 o inst14|inst11~regout $end
$var wire 1 p inst14|inst12~regout $end
$var wire 1 q inst14|inst13~regout $end
$var wire 1 r inst14|inst14~regout $end
$var wire 1 s inst14|inst15~regout $end
$var wire 1 t inst14|inst16~regout $end
$var wire 1 u inst15|inst~regout $end
$var wire 1 v inst10|inst40|inst9~0_combout $end
$var wire 1 w inst15|inst2~regout $end
$var wire 1 x inst10|inst20|inst9~0_combout $end
$var wire 1 y inst15|inst3~regout $end
$var wire 1 z inst10|inst21|inst9~0_combout $end
$var wire 1 { inst15|inst4~regout $end
$var wire 1 | inst10|inst22|inst9~0_combout $end
$var wire 1 } inst15|inst5~regout $end
$var wire 1 ~ inst10|inst23|inst9~0_combout $end
$var wire 1 !! inst15|inst6~regout $end
$var wire 1 "! inst10|inst25|inst9~0_combout $end
$var wire 1 #! inst15|inst7~regout $end
$var wire 1 $! inst10|inst26|inst9~0_combout $end
$var wire 1 %! inst15|inst8~regout $end
$var wire 1 &! inst10|inst28|inst9~0_combout $end
$var wire 1 '! inst15|inst9~regout $end
$var wire 1 (! inst10|inst29|inst9~0_combout $end
$var wire 1 )! inst15|inst10~regout $end
$var wire 1 *! inst10|inst30|inst9~0_combout $end
$var wire 1 +! inst15|inst11~regout $end
$var wire 1 ,! inst10|inst31|inst9~0_combout $end
$var wire 1 -! inst15|inst12~regout $end
$var wire 1 .! inst10|inst32|inst9~0_combout $end
$var wire 1 /! inst15|inst13~regout $end
$var wire 1 0! inst10|inst33|inst9~0_combout $end
$var wire 1 1! inst15|inst14~regout $end
$var wire 1 2! inst10|inst34|inst9~0_combout $end
$var wire 1 3! inst15|inst15~regout $end
$var wire 1 4! inst10|inst35|inst9~0_combout $end
$var wire 1 5! inst15|inst16~regout $end
$var wire 1 6! inst13~regout $end
$var wire 1 7! inst|mi~1_combout $end
$var wire 1 8! inst4~combout $end
$var wire 1 9! A~combout [31] $end
$var wire 1 :! A~combout [30] $end
$var wire 1 ;! A~combout [29] $end
$var wire 1 <! A~combout [28] $end
$var wire 1 =! A~combout [27] $end
$var wire 1 >! A~combout [26] $end
$var wire 1 ?! A~combout [25] $end
$var wire 1 @! A~combout [24] $end
$var wire 1 A! A~combout [23] $end
$var wire 1 B! A~combout [22] $end
$var wire 1 C! A~combout [21] $end
$var wire 1 D! A~combout [20] $end
$var wire 1 E! A~combout [19] $end
$var wire 1 F! A~combout [18] $end
$var wire 1 G! A~combout [17] $end
$var wire 1 H! A~combout [16] $end
$var wire 1 I! A~combout [15] $end
$var wire 1 J! A~combout [14] $end
$var wire 1 K! A~combout [13] $end
$var wire 1 L! A~combout [12] $end
$var wire 1 M! A~combout [11] $end
$var wire 1 N! A~combout [10] $end
$var wire 1 O! A~combout [9] $end
$var wire 1 P! A~combout [8] $end
$var wire 1 Q! A~combout [7] $end
$var wire 1 R! A~combout [6] $end
$var wire 1 S! A~combout [5] $end
$var wire 1 T! A~combout [4] $end
$var wire 1 U! A~combout [3] $end
$var wire 1 V! A~combout [2] $end
$var wire 1 W! A~combout [1] $end
$var wire 1 X! A~combout [0] $end
$var wire 1 Y! B~combout [31] $end
$var wire 1 Z! B~combout [30] $end
$var wire 1 [! B~combout [29] $end
$var wire 1 \! B~combout [28] $end
$var wire 1 ]! B~combout [27] $end
$var wire 1 ^! B~combout [26] $end
$var wire 1 _! B~combout [25] $end
$var wire 1 `! B~combout [24] $end
$var wire 1 a! B~combout [23] $end
$var wire 1 b! B~combout [22] $end
$var wire 1 c! B~combout [21] $end
$var wire 1 d! B~combout [20] $end
$var wire 1 e! B~combout [19] $end
$var wire 1 f! B~combout [18] $end
$var wire 1 g! B~combout [17] $end
$var wire 1 h! B~combout [16] $end
$var wire 1 i! B~combout [15] $end
$var wire 1 j! B~combout [14] $end
$var wire 1 k! B~combout [13] $end
$var wire 1 l! B~combout [12] $end
$var wire 1 m! B~combout [11] $end
$var wire 1 n! B~combout [10] $end
$var wire 1 o! B~combout [9] $end
$var wire 1 p! B~combout [8] $end
$var wire 1 q! B~combout [7] $end
$var wire 1 r! B~combout [6] $end
$var wire 1 s! B~combout [5] $end
$var wire 1 t! B~combout [4] $end
$var wire 1 u! B~combout [3] $end
$var wire 1 v! B~combout [2] $end
$var wire 1 w! B~combout [1] $end
$var wire 1 x! B~combout [0] $end
$upscope $end
$upscope $end
$enddefinitions $end
#0
$dumpvars
bx !
bx "
x#
0$
x%
x&
x'
x(
x)
x*
x+
x,
x-
x.
x/
x0
x1
x2
x3
x4
x5
x6
x7
x8
x9
x:
x;
x<
x=
x>
x?
x@
xA
xB
xC
xD
xE
xF
xG
xH
xI
xJ
xK
0L
1M
xN
1O
1P
1Q
xR
xS
xT
xU
xV
xW
xX
xY
xZ
x[
x\
x]
x^
x_
x`
xa
xb
0c
xd
0e
0f
0g
0h
0i
0j
0k
0l
0m
0n
0o
0p
0q
0r
0s
0t
0u
xv
0w
xx
0y
xz
0{
x|
0}
x~
0!!
x"!
0#!
x$!
0%!
x&!
0'!
x(!
0)!
x*!
0+!
x,!
0-!
x.!
0/!
x0!
01!
x2!
03!
x4!
05!
06!
x7!
x8!
xX!
xW!
xV!
xU!
xT!
xS!
xR!
xQ!
xP!
xO!
xN!
xM!
xL!
xK!
xJ!
xI!
xH!
xG!
xF!
xE!
xD!
xC!
xB!
xA!
x@!
x?!
x>!
x=!
x<!
x;!
x:!
x9!
xx!
xw!
xv!
xu!
xt!
xs!
xr!
xq!
xp!
xo!
xn!
xm!
xl!
xk!
xj!
xi!
xh!
xg!
xf!
xe!
xd!
xc!
xb!
xa!
x`!
x_!
x^!
x]!
x\!
x[!
xZ!
xY!
$end
#708
0S
#1852
07!
#1934
00
0*
#1937
08
05
03
0/
0+
#1938
0A
#1940
01
0-
#1949
07
0.
#2346
02
#2612
04
0,
#2667
0C
#2675
0'
09
#2686
0)
#2696
06
#2718
0H
0B
#2754
0:
#2789
0=
#2801
0<
#2805
0D
#3028
0>
#3031
0F
#3037
0G
#3046
0E
#3073
0?
#3091
0@
#3125
0;
#5097
0K
#40000
0#
b1xxxxxxxxxxxxxxxxxxxxxxxxxxxxxxx !
b11xxxxxxxxxxxxxxxxxxxxxxxxxxxxxx !
b110xxxxxxxxxxxxxxxxxxxxxxxxxxxxx !
b1101xxxxxxxxxxxxxxxxxxxxxxxxxxxx !
b11011xxxxxxxxxxxxxxxxxxxxxxxxxxx !
b110111xxxxxxxxxxxxxxxxxxxxxxxxxx !
b1101110xxxxxxxxxxxxxxxxxxxxxxxxx !
b11011100xxxxxxxxxxxxxxxxxxxxxxxx !
b110111001xxxxxxxxxxxxxxxxxxxxxxx !
b1101110010xxxxxxxxxxxxxxxxxxxxxx !
b11011100100xxxxxxxxxxxxxxxxxxxxx !
b110111001001xxxxxxxxxxxxxxxxxxxx !
b1101110010011xxxxxxxxxxxxxxxxxxx !
b11011100100110xxxxxxxxxxxxxxxxxx !
b110111001001100xxxxxxxxxxxxxxxxx !
b1101110010011000xxxxxxxxxxxxxxxx !
b11011100100110000xxxxxxxxxxxxxxx !
b110111001001100001xxxxxxxxxxxxxx !
b1101110010011000011xxxxxxxxxxxxx !
b11011100100110000111xxxxxxxxxxxx !
b110111001001100001110xxxxxxxxxxx !
b1101110010011000011101xxxxxxxxxx !
b11011100100110000111011xxxxxxxxx !
b110111001001100001110111xxxxxxxx !
b1101110010011000011101110xxxxxxx !
b11011100100110000111011100xxxxxx !
b110111001001100001110111000xxxxx !
b1101110010011000011101110000xxxx !
b11011100100110000111011100001xxx !
b110111001001100001110111000010xx !
b1101110010011000011101110000100x !
b11011100100110000111011100001000 !
b0xxxxxxxxxxxxxxxxxxxxxxxxxxxxxxx "
b1xxxxxxxxxxxxxxxxxxxxxxxxxxxxxx "
b10xxxxxxxxxxxxxxxxxxxxxxxxxxxxx "
b100xxxxxxxxxxxxxxxxxxxxxxxxxxxx "
b1001xxxxxxxxxxxxxxxxxxxxxxxxxxx "
b10011xxxxxxxxxxxxxxxxxxxxxxxxxx "
b100111xxxxxxxxxxxxxxxxxxxxxxxxx "
b1001110xxxxxxxxxxxxxxxxxxxxxxxx "
b10011100xxxxxxxxxxxxxxxxxxxxxxx "
b100111001xxxxxxxxxxxxxxxxxxxxxx "
b1001110011xxxxxxxxxxxxxxxxxxxxx "
b10011100111xxxxxxxxxxxxxxxxxxxx "
b100111001110xxxxxxxxxxxxxxxxxxx "
b1001110011100xxxxxxxxxxxxxxxxxx "
b10011100111000xxxxxxxxxxxxxxxxx "
b100111001110000xxxxxxxxxxxxxxxx "
b1001110011100000xxxxxxxxxxxxxxx "
b10011100111000001xxxxxxxxxxxxxx "
b100111001110000010xxxxxxxxxxxxx "
b1001110011100000100xxxxxxxxxxxx "
b10011100111000001001xxxxxxxxxxx "
b100111001110000010011xxxxxxxxxx "
b1001110011100000100111xxxxxxxxx "
b10011100111000001001111xxxxxxxx "
b100111001110000010011111xxxxxxx "
b1001110011100000100111110xxxxxx "
b10011100111000001001111100xxxxx "
b100111001110000010011111000xxxx "
b1001110011100000100111110000xxx "
b10011100111000001001111100001xx "
b100111001110000010011111000011x "
b1001110011100000100111110000111 "
#40708
19!
1:!
0;!
1<!
1=!
1>!
0?!
0@!
1A!
0B!
0C!
1D!
1E!
0F!
0G!
0H!
0I!
1J!
1K!
1L!
0M!
1N!
1O!
1P!
0R!
0S!
0T!
1U!
0V!
0W!
0X!
0Y!
1Z!
0[!
0\!
1]!
1^!
1_!
0`!
0a!
1b!
1c!
1d!
0e!
0f!
0g!
0h!
0i!
1j!
0k!
0l!
1m!
1n!
1o!
1p!
1q!
0r!
0s!
0t!
0u!
1v!
1w!
1x!
#40727
0Q!
0R
#42443
1~
#42665
1,!
#42741
1.!
#42759
1"!
#42895
0z
#42951
1]
#42966
0v
#42992
0(!
#43005
02!
#43011
0X
#43036
1[
#43037
0x
#43050
0I
#43051
0W
#43066
0Y
#43133
14!
#43211
0|
#43252
1\
#43267
1^
#43308
0*!
#43359
0b
#43365
08!
#43404
10!
#43438
0T
#43512
1a
#43591
1$!
#43907
1&!
#44256
0U
#44471
0Z
#44644
1_
#45072
0V
#45200
0(
#45451
1`
#45666
0d
#46386
0%
#48695
0&
0J
#65000
1#
#65727
1R
#67537
1e
1f
1g
1h
1l
1n
1o
1s
1t
1{
1'!
1)!
1-!
11!
16!
#68050
1I
#69471
1*
10
#69474
1+
13
18
#69475
1A
#69486
17
#69883
12
#70149
1,
#70212
1'
#70223
1)
#70255
1B
#70338
1<
#70342
1D
#70568
1F
#90000
0#
#90727
0R
#93050
0I
#115000
1#
#115727
1R
#118050
1I
#140000
b11111100100110000111011100001000 !
b11101100100110000111011100001000 !
b11100100100110000111011100001000 !
b11100000100110000111011100001000 !
b11100000110110000111011100001000 !
b11100000111110000111011100001000 !
b11100000111010000111011100001000 !
b11100000111000000111011100001000 !
b11100000111001000111011100001000 !
b11100000111001010111011100001000 !
b11100000111001011111011100001000 !
b11100000111001011101011100001000 !
b11100000111001011100011100001000 !
b11100000111001011100010100001000 !
b11100000111001011100010000001000 !
b11100000111001011100010010001000 !
b11100000111001011100010011001000 !
b11100000111001011100010011001100 !
b11100000111001011100010011001110 !
b11100000111001011100010011001111 !
b11001110011100000100111110000111 "
b11101110011100000100111110000111 "
b11101100011100000100111110000111 "
b11101101011100000100111110000111 "
b11101101010100000100111110000111 "
b11101101010110000100111110000111 "
b11101101010110100100111110000111 "
b11101101010110100000111110000111 "
b11101101010110100010111110000111 "
b11101101010110100010011110000111 "
b11101101010110100010010110000111 "
b11101101010110100010010010000111 "
b11101101010110100010010010010111 "
b11101101010110100010010010011111 "
b11101101010110100010010010011011 "
b11101101010110100010010010011001 "
0#
#140708
1;!
0<!
0=!
0>!
1B!
1C!
0D!
0E!
1F!
1H!
1I!
0K!
0L!
0O!
0P!
1R!
1V!
1W!
1X!
1Y!
1[!
0_!
1`!
0c!
1e!
1g!
0j!
1k!
0m!
0o!
0p!
1t!
1u!
0v!
0w!
#140727
0R
1Q!
#142443
0~
#142665
0,!
#142672
0[
#142759
0"!
#142867
12!
#142967
1V
#142992
1(!
#143050
0I
#143105
18!
#143110
1b
#143112
1Z
#143124
0.!
#143138
0_
#143252
0\
#143341
0^
#143404
00!
#143438
1T
#143945
0`
#144256
1U
#144541
0a
#144544
1W
#144940
1(
#145132
0b
#145417
1d
#145473
08!
#146137
1%
#147308
0(
#147439
0d
#148159
0%
#148446
1&
1J
#150468
0&
0J
#165000
1#
#165727
1R
#167537
0e
0f
0g
1j
1k
0l
1m
0n
0o
1p
1r
1u
1w
1y
1}
1!!
0'!
1+!
01!
13!
15!
#168050
1I
#169471
0*
00
#169474
0+
1/
03
#169475
0A
#169477
11
#169486
1.
#169883
02
#170149
14
#170204
1C
#170212
19
#170223
0)
#170233
16
#170255
1H
#170291
1:
#170326
1=
#170565
1>
#170568
0F
#170574
1G
#170662
1;
#190000
0#
#190727
0R
#193050
0I
#215000
1#
#215727
1R
#218050
1I
#240000
b1100000111001011100010011001111 !
b100000111001011100010011001111 !
b100010111001011100010011001111 !
b100010011001011100010011001111 !
b100010011001111100010011001111 !
b100010011001111100110011001111 !
b100010011001111100100011001111 !
b100010011001111100100011101111 !
b100010011001111100100011100111 !
b10101101010110100010010010011001 "
b10111101010110100010010010011001 "
b10111001010110100010010010011001 "
b10111001010010100010010010011001 "
b10111001010010110010010010011001 "
b10111001010010110011010010011001 "
b10111001010010110011000010011001 "
b10111001010010110011000011011001 "
b10111001010010110011000011111001 "
b10111001010010110011000011111000 "
b101010011001111100100011100111 !
b101110011001111100100011100111 !
b101110010001111100100011100111 !
b101110010101111100100011100111 !
b101110010111111100100011100111 !
b101110010111111101100011100111 !
b101110010111111101101011100111 !
b101110010111111101101010100111 !
b10011001010010110011000011111000 "
b10011001010000110011000011111000 "
b10011001010000110011100011111000 "
b10011001010000110011101011111000 "
b10011001010000110011101011101000 "
b10011001010000110011101011101100 "
0#
#240708
09!
0:!
1=!
1>!
1?!
0A!
0C!
1D!
1E!
1G!
1L!
1M!
0N!
1O!
0R!
1S!
0U!
0Z!
0[!
1\!
0^!
0d!
0e!
1h!
1l!
1m!
0n!
1o!
1r!
1s!
0t!
1v!
0x!
#240727
0R
#242640
1X
#242661
1*!
#242741
1.!
#242809
0&!
#242884
0T
#242966
1v
#242977
1,!
#243005
02!
#243010
0]
#243037
1x
#243050
0I
#243051
0W
#243057
10!
#243125
0(!
#243133
04!
#243138
1_
#243223
1Y
#243252
1\
#243341
1^
#243353
1z
#243373
12!
#243441
0*!
#243669
1|
#243757
0,!
#243945
1`
#244258
1~
#244541
1a
#245132
1b
#245473
18!
#247308
1(
#247439
1d
#248159
1%
#250468
1&
1J
#251259
0h
0j
0k
0m
0p
0r
0s
0t
0u
0w
0y
0{
0}
0!!
0)!
0+!
0-!
03!
05!
06!
#253196
0/
08
#253199
01
#253208
0.
07
#253871
0,
04
#253926
0C
#253934
09
0'
#253955
06
#253977
0B
0H
#254013
0:
#254048
0=
#254060
0<
#254064
0D
#254287
0>
#254296
0G
#254384
0;
#265000
1#
#265727
1R
#267537
1c
#267580
0d
#268050
1I
#269389
17!
#270609
0&
0J
#270619
08!
#272454
0(
#272634
1K
#290000
0#
#290727
0R
#293050
0I
#315000
1#
#315727
1R
#317537
0c
1e
1f
1i
1l
1m
1o
1q
1u
1w
1!!
1%!
1'!
1)!
1+!
13!
15!
#318050
1I
#319389
07!
#319471
1*
10
#319474
13
15
#319475
1A
#319477
1-
11
#320204
1C
#320212
19
#320223
1)
#320255
1B
1H
#320291
1:
#320565
1>
#320574
1G
#320619
18!
#320628
1@
#322454
1(
#322634
0K
#340000
b101111010111111101101010100111 !
b101111010111111101101010110111 !
b10010001010000110011101011101100 "
b10010001110000110011101011101100 "
b111111010111111101101010110111 !
b111111010111101101101010110111 !
b111111010111100101101010110111 !
b111111010111100101101110110111 !
b111111010111100101101110110101 !
b111111010111100101101110110100 !
b10010000110000110011101011101100 "
b10010000111000110011101011101100 "
b10010000111000010011101011101100 "
b10010000111000010111101011101100 "
b10010000111000010101101011101100 "
b10010000111000010101101011100100 "
b10010000111000010101101011100110 "
b10111111010111100101101110110100 !
b11111111010111100101101110110100 !
b11111111010111000101101110110100 !
b11111111010111000101111110110100 !
b10010100111000010101101011100110 "
b10010100111100010101101011100110 "
b10010100111100000101101011100110 "
b10010100111100000101101011000110 "
b11111111011111000101111110110100 !
b10110100111100000101101011000110 "
b10110100111100000101100011000110 "
b10110100111100000101100011010110 "
b10110100111100000101100011010010 "
0#
#340708
19!
1:!
1<!
1@!
1C!
0G!
0H!
0I!
1N!
1P!
1T!
0W!
0X!
1[!
0]!
1^!
0`!
1a!
1c!
1d!
0g!
0h!
1j!
0k!
0o!
0s!
1t!
0u!
0v!
1w!
#340727
0R
#342414
1(!
#342434
1&!
#342532
1,!
#342560
1"!
#342580
1d
#342640
0X
#342672
1[
#342730
1*!
#342836
0.!
#342899
1W
#342948
14!
#342951
1]
#342966
0v
#342967
0V
#342991
1.!
#343037
0x
#343050
0I
#343060
0\
#343105
08!
#343110
0b
#343203
0U
#343223
0Y
#343252
1\
#343311
0`
#343353
0z
#343669
0|
#343704
1X
#344287
1Y
#344940
0(
#345417
0d
#345609
1&
1J
#346137
0%
#348446
0&
0J
#365000
1#
#365727
1R
#367537
0e
1g
0i
0m
0o
1p
1r
1t
0u
0w
1y
1{
1#!
0%!
0'!
0)!
1/!
11!
03!
16!
#368050
1I
#369474
1+
03
18
#369475
0A
#369477
0-
01
#370149
14
#370212
09
1'
#370223
0)
#370233
16
#370255
0B
#370291
0:
#370338
1<
#370568
1F
#370574
0G
#370583
1E
#370610
1?
#370628
0@
#370662
1;
#390000
0#
#390727
0R
#393050
0I
#415000
1#
#415727
1R
#418050
1I
#440000
b10110100111100001101100011010010 "
b11111111001111000101111110110100 !
b11111111001111000111111110110100 !
b11111111001111000111111100110100 !
b110100111100001101100011010010 "
b110100111100001101100111010010 "
b11111101001111000111111100110100 !
b11111101001111000111111100010100 !
b11111101001111000111111100011100 !
b100100111100001101100111010010 "
b100100111100001101100111010011 "
b11111101001011000111111100011100 !
b11111101001001000111111100011100 !
b11111101001001000111110100011100 !
b11111101001001000111110101011100 !
b11111101001001000111110101001100 !
b101100111100001101100111010011 "
b101100011100001101100111010011 "
b11111101001001000111110101001101 !
b101101011100001101100111010011 "
b101101011100001001100111010011 "
b101101011100001001100111010001 "
b101101011000001001100111010001 "
b101101011000011001100111010001 "
b101101011000011001100111110001 "
b11111101000001000111110101001101 !
b101101011000011001100111110101 "
0#
#440708
0Y!
0\!
1]!
1`!
0a!
0d!
1h!
1i!
0j!
1p!
1s!
1v!
0w!
1x!
0?!
0B!
0C!
0D!
0E!
1K!
0O!
1R!
0S!
0T!
1U!
1X!
#440727
0R
0Q!
#442434
0&!
#442544
0~
#442661
0*!
#442860
0"!
#442899
0W
#442903
0a
#443050
0I
#443203
1U
#443214
1`
#443252
0\
#443359
1b
#443365
18!
#443494
0b
#443692
0$!
#443704
0X
#443810
1a
#443835
08!
#444019
1V
#444071
0]
#444401
1b
#444742
18!
#445596
1W
#446401
1X
#446577
1(
#446708
1d
#447428
1%
#449737
1&
1J
#450528
0f
0g
0l
0p
0q
0r
0t
0y
0{
0!!
0#!
0+!
0/!
01!
05!
06!
#452462
0*
00
#452465
0+
05
08
#453140
04
#453195
0C
#453203
0'
#453224
06
#453246
0H
#453329
0<
#453556
0>
#453559
0F
#453574
0E
#453601
0?
#453653
0;
#465000
1#
#465727
1R
#467537
1c
#467580
0d
#468050
1I
#468249
1v
#469389
17!
#470609
0&
0J
#470619
08!
#472454
0(
#472634
1K
#490000
0#
#490727
0R
#493050
0I
#515000
1#
#515727
1R
#517537
0c
1f
1k
1m
1n
1o
1q
1w
1y
1!!
1#!
1)!
1-!
11!
16!
#518050
1I
#518249
0v
#519389
07!
#519471
1*
#519474
1/
13
15
#519477
11
#519883
12
#520212
1'
#520255
1B
#520291
1:
#520342
1D
#520565
1>
#520568
1F
#520610
1?
#520619
18!
#520662
1;
#522454
1(
#522634
0K
#540000
b11111101000001000011110101001101 !
b101101001000011001100111110101 "
b101101001000011001100101110101 "
b11011101000001000011110101001101 !
b11011101000001000011010101001101 !
b1101101001000011001100101110101 "
b1101101001000011001110101110101 "
b1101101001000011001110100110101 "
b11010101000001000011010101001101 !
b11010101000001010011010101001101 !
b11010101000001010011010001001101 !
b1101101001000111001110100110101 "
b1101101001000111011110100110101 "
b1101101001000111011110100111101 "
b10010101000001010011010001001101 !
b10010101000001110011010001001101 !
b10010101000001110011000001001101 !
b1101001001000111011110100111101 "
b1101001001000111011110100101101 "
b1101001001000110011110100101101 "
b10010101010001110011000001001101 !
b10010101010001110011000011001101 !
b10010111010001110011000011001101 !
b10010111010001110011000011101101 !
b10010111010011110011000011101101 !
b10010111010011110011001011101101 !
b1100001001000110011110100101101 "
b1100000001000110011110100101101 "
b1100000001000100011110100101101 "
b1100000001000100011110100001101 "
b10010111011011110011001011101101 !
b1100000001000100011110100001001 "
0#
#540708
0:!
0;!
0=!
1?!
1B!
1C!
1E!
1G!
1H!
0J!
0M!
0N!
1O!
0P!
1S!
1Z!
0]!
0^!
0`!
0b!
1g!
0h!
0i!
1k!
1n!
0q!
0r!
0s!
0t!
1u!
0v!
#540727
0R
1Q!
#542532
0,!
#542560
1"!
#542580
1d
#542661
1*!
#542741
0.!
#542977
1,!
#542992
0(!
#543037
1x
#543050
0I
#543051
0W
#543057
00!
#543203
0U
#543252
1\
#543308
0*!
#543311
0^
#543353
1z
#543359
0b
#543365
08!
#543373
02!
#543392
1$!
#543512
0a
#543624
0,!
#543669
1|
#543689
04!
#543856
0X
#544071
1]
#544387
1^
#544439
0Y
#545200
0(
#545609
1&
1J
#545666
0d
#545844
0Z
#546386
0%
#546649
0[
#547229
0\
#548048
0]
#548364
0^
#548695
0&
0J
#565000
1#
#565727
1R
#567537
1g
1i
1j
1l
1p
0q
1r
1s
1u
0w
0y
1}
0!!
0#!
1%!
1'!
1+!
0-!
1/!
13!
15!
06!
#568050
1I
#569471
10
#569474
1+
05
#569475
1A
#569477
1-
#569486
1.
17
#570149
14
#570204
1C
#570212
19
0'
#570233
16
#570255
1H
#570291
0:
#570326
1=
#570342
0D
#570565
0>
#570574
1G
#570583
1E
#570610
0?
#570628
1@
#570662
0;
#590000
0#
#590727
0R
#593050
0I
#615000
1#
#615727
1R
#618050
1I
#640000
b1100000001001100011110100001001 "
b10010111011010110011001011101101 !
b10010111011010110011001011101001 !
b10010011011010110011001011101001 !
b1100000001011100011110100001001 "
b10010010011010110011001011101001 !
b10000010011010110011001011101001 !
b10000010011010111011001011101001 !
b10000010011010111011001011101011 !
b10011010111011001011101011 !
b1000000001011100011110100001001 "
b11000000001011100011110100001001 "
b10011010111011001010101011 !
b11000000001111100011110100001001 "
b11000000011111100011110100001001 "
b10011010111011101010101011 !
b11000000011111100011100100001001 "
b11000000011111100011100101001001 "
b1010011010111011101010101011 !
b1010011010101011101010101011 !
b11000000011111000011100101001001 "
b11000000011111000011100101000001 "
b1010011010001011101010101011 !
b11000100011111000011100101000001 "
b11000100011111001011100101000001 "
b1000011010001011101010101011 !
b1000011010001011100010101011 !
b11000101011111001011100101000001 "
b11000101011111001011100101000101 "
0#
#640708
1Y!
0[!
1^!
1`!
1b!
1d!
1e!
1f!
0g!
1i!
0n!
1r!
0u!
1v!
09!
0<!
1=!
0>!
0?!
0@!
0F!
0G!
0H!
1I!
1M!
0O!
0R!
0V!
1W!
#640727
0R
#642544
1~
#642803
0x
#642967
0V
#643050
0I
#643119
0z
#643311
1^
#643359
1b
#643365
18!
#643438
1T
#644256
1U
#645072
1V
#645200
1(
#645666
1d
#646386
1%
#648695
1&
1J
#649486
0f
0g
0i
0j
0k
0l
0m
0n
0o
0p
0r
0s
0u
0}
0%!
0'!
0)!
0+!
0/!
01!
03!
05!
#651420
0*
00
#651423
0+
0/
03
#651424
0A
#651426
0-
01
#651435
0.
07
#651832
02
#652098
04
#652153
0C
#652161
09
#652182
06
#652204
0B
0H
#652275
0=
#652517
0F
#652523
0G
#652532
0E
#652577
0@
#665000
1#
#665727
1R
#667537
1c
#667580
0d
#668050
1I
#669389
17!
#670609
0&
0J
#670619
08!
#672454
0(
#672634
1K
#690000
0#
#690727
0R
#693050
0I
#715000
1#
#715727
1R
#717537
0c
1i
1j
1k
1l
1m
1q
1r
1s
1u
1y
1!!
1#!
1%!
1'!
1+!
1-!
13!
15!
#718050
1I
#719389
07!
#719471
10
#719474
1/
15
#719475
1A
#719477
1-
11
#719486
1.
17
#720204
1C
#720212
19
#720233
16
#720255
1H
#720342
1D
#720565
1>
#720574
1G
#720610
1?
#720619
18!
#720628
1@
#720662
1;
#722454
1(
#722634
0K
#740000
b1000011010001010100010101011 !
b11000101011111001011100001000101 "
b11010101011111001011100001000101 "
b11010101011111001011100001000100 "
b1000011110001010100010101011 !
b1000011110001010100010101010 !
b11010101011111001111100001000100 "
b11010101011111001111100011000100 "
b10010101011111001111100011000100 "
b1000011110001010100110101010 !
b1000011110001010110110101010 !
b1000001110001010110110101010 !
b1000001110001010110100101010 !
b1000001110001010110100001010 !
b10010101011111011111100011000100 "
b1000000110001010110100001010 !
b10010101011110011111100011000100 "
b1000000111001010110100001010 !
b1000000111001010110100001110 !
b10010101011100011111100011000100 "
b1000000111000010110100001110 !
b10001000000111000010110100001110 !
b10010101011000011111100011000100 "
b10001000000111000010010100001110 !
b10010101011000011111110011000100 "
b10000000000111000010010100001110 !
b10010101011000011111110011001100 "
b10000000000111100010010100001110 !
b10010001011000011111110011001100 "
b10010001011000010111110011001100 "
b10000010000111100010010100001110 !
0#
#740708
19!
0=!
1?!
0B!
0C!
1D!
1F!
1G!
0I!
0L!
0M!
1N!
1P!
0S!
1V!
0X!
0Z!
1\!
0^!
0d!
0e!
0f!
1h!
0i!
1j!
1n!
0p!
1q!
1u!
0x!
#740727
0R
0Q!
#742553
0|
#742580
1d
#742884
0T
#742903
1a
#742951
1]
#743050
0I
#743105
08!
#743110
0b
#743142
0~
#743458
0"!
#744290
0$!
#744940
0(
#745417
0d
#745609
1&
1J
#746137
0%
#748446
0&
0J
#765000
1#
#765727
1R
#767537
1f
1h
0j
0q
0s
1t
1w
1{
1}
0%!
1)!
0+!
0-!
1/!
03!
05!
16!
#768050
1I
#769471
1*
#769474
05
18
#769486
0.
07
#770149
1,
#770204
0C
#770212
1'
#770255
1B
0H
#770291
1:
#770326
1=
#770338
1<
#770342
0D
#770574
0G
#770583
1E
#770628
0@
